<?xml version="1.0" encoding="utf-8"?>
<svg xmlns="http://www.w3.org/2000/svg" width="211.33237840044978" height="211.33237840044978" viewBox="-178.3561306064749 -289.1360378330374 211.33237840044978 211.33237840044978" version="1.1">
  <g id="storage">
    <rect x="-178.3561306064749" y="-289.1360378330374" width="211.33237840044978" height="211.33237840044978" style="fill:#303633;fill-opacity:1;stroke:none;" />
    <ellipse cx="-72.68994140625" cy="-183.4698486328125" rx="85.66618920022488" ry="85.66618920022488" style="fill:none;stroke-width:3;stroke:#FFFFFF;stroke-opacity:1;stroke-miterlimit:10" />
  </g>
</svg>