<?xml version="1.0" encoding="UTF-8"?>
<svg xmlns="http://www.w3.org/2000/svg" xmlns:xlink="http://www.w3.org/1999/xlink" width="172.875427pt" height="98.427551pt" viewBox="0 0 172.875427 98.427551" version="1.1">
  <g id="surface2538">
    <rect x="0" y="0" width="172.875427" height="98.427551" style="fill:rgb(18.75%,21.09375%,19.921875%);fill-opacity:1;stroke:none;"/>
    <path style="fill:none;stroke-width:4;stroke-linecap:round;stroke-linejoin:round;stroke:rgb(53.90625%,88.28125%,20.3125%);stroke-opacity:1;stroke-miterlimit:10;" d="M 147.570312 40.121094 L 146.9375 40.121094 L 145.296875 40.460938 L 142.519531 41.710938 L 139.613281 43.304688 L 138.097656 44.894531 L 137.339844 46.714844 L 138.097656 47.621094 L 139.992188 47.851562 L 142.898438 47.621094 L 146.179688 47.167969 L 150.097656 47.964844 L 151.738281 49.667969 L 152.496094 51.714844 L 152.875 53.191406 "/>
  </g>
</svg>
